C:\USERS\ROWBOT\DOCUMENTS\VISUAL STUDIO 2012\PROJECTS\HW2\HW2\DEBUG\MAIN.OBJ
C:\USERS\ROWBOT\DOCUMENTS\VISUAL STUDIO 2012\PROJECTS\HW2\HW2\DEBUG\VC110.PDB
C:\USERS\ROWBOT\DOCUMENTS\VISUAL STUDIO 2012\PROJECTS\HW2\DEBUG\HW2.ILK
C:\USERS\ROWBOT\DOCUMENTS\VISUAL STUDIO 2012\PROJECTS\HW2\DEBUG\HW2.EXE
C:\USERS\ROWBOT\DOCUMENTS\VISUAL STUDIO 2012\PROJECTS\HW2\DEBUG\HW2.PDB
C:\Users\Rowbot\Documents\Visual Studio 2012\Projects\HW2\HW2\Debug\cl.command.1.tlog
C:\Users\Rowbot\Documents\Visual Studio 2012\Projects\HW2\HW2\Debug\CL.read.1.tlog
C:\Users\Rowbot\Documents\Visual Studio 2012\Projects\HW2\HW2\Debug\CL.write.1.tlog
C:\Users\Rowbot\Documents\Visual Studio 2012\Projects\HW2\HW2\Debug\link-cvtres.read.1.tlog
C:\Users\Rowbot\Documents\Visual Studio 2012\Projects\HW2\HW2\Debug\link-cvtres.write.1.tlog
C:\Users\Rowbot\Documents\Visual Studio 2012\Projects\HW2\HW2\Debug\link-rc.read.1.tlog
C:\Users\Rowbot\Documents\Visual Studio 2012\Projects\HW2\HW2\Debug\link-rc.write.1.tlog
C:\Users\Rowbot\Documents\Visual Studio 2012\Projects\HW2\HW2\Debug\link.command.1.tlog
C:\Users\Rowbot\Documents\Visual Studio 2012\Projects\HW2\HW2\Debug\link.read.1.tlog
C:\Users\Rowbot\Documents\Visual Studio 2012\Projects\HW2\HW2\Debug\link.write.1.tlog
C:\Users\Rowbot\Documents\Visual Studio 2012\Projects\HW2\HW2\Debug\vc110.idb
C:\Users\Rowbot\Documents\Visual Studio 2012\Projects\HW2\HW2\Debug\vc110.pdb
C:\Users\Rowbot\Documents\Visual Studio 2012\Projects\HW2\Debug\HW2.pdb
C:\Users\Rowbot\Documents\Visual Studio 2012\Projects\HW2\Debug\HW2.exe
C:\Users\Rowbot\Documents\Visual Studio 2012\Projects\HW2\Debug\HW2.ilk
